\relax 
\providecommand\hyper@newdestlabel[2]{}
\providecommand\HyperFirstAtBeginDocument{\AtBeginDocument}
\HyperFirstAtBeginDocument{\ifx\hyper@anchor\@undefined
\global\let\oldcontentsline\contentsline
\gdef\contentsline#1#2#3#4{\oldcontentsline{#1}{#2}{#3}}
\global\let\oldnewlabel\newlabel
\gdef\newlabel#1#2{\newlabelxx{#1}#2}
\gdef\newlabelxx#1#2#3#4#5#6{\oldnewlabel{#1}{{#2}{#3}}}
\AtEndDocument{\ifx\hyper@anchor\@undefined
\let\contentsline\oldcontentsline
\let\newlabel\oldnewlabel
\fi}
\fi}
\global\let\hyper@last\relax 
\gdef\HyperFirstAtBeginDocument#1{#1}
\providecommand\HyField@AuxAddToFields[1]{}
\providecommand\HyField@AuxAddToCoFields[2]{}
\@writefile{toc}{\contentsline {section}{\numberline {1}Introduction}{2}{section.1}}
\@writefile{toc}{\contentsline {section}{\numberline {2}System Overview}{3}{section.2}}
\@writefile{lof}{\contentsline {figure}{\numberline {1}{\ignorespaces System Overview}}{3}{figure.1}}
\@writefile{toc}{\contentsline {section}{\numberline {3}Hardware}{5}{section.3}}
\@writefile{toc}{\contentsline {subsection}{\numberline {3.1}Chassis}{5}{subsection.3.1}}
\newlabel{chassis}{{3.1}{5}{Chassis}{subsection.3.1}{}}
\@writefile{lof}{\contentsline {figure}{\numberline {2}{\ignorespaces Chassis front profile.}}{5}{figure.2}}
\newlabel{chass_front}{{2}{5}{Chassis front profile}{figure.2}{}}
\@writefile{lof}{\contentsline {figure}{\numberline {3}{\ignorespaces Chassis left profile.}}{5}{figure.3}}
\newlabel{chass_left}{{3}{5}{Chassis left profile}{figure.3}{}}
\@writefile{lof}{\contentsline {figure}{\numberline {4}{\ignorespaces Chassis rear profile.}}{6}{figure.4}}
\newlabel{chass_rear}{{4}{6}{Chassis rear profile}{figure.4}{}}
\@writefile{lof}{\contentsline {figure}{\numberline {5}{\ignorespaces Track and wheel arrangement.}}{6}{figure.5}}
\newlabel{chass_rear}{{5}{6}{Track and wheel arrangement}{figure.5}{}}
\@writefile{toc}{\contentsline {subsection}{\numberline {3.2}Power Supply and Distribution}{7}{subsection.3.2}}
\newlabel{power}{{3.2}{7}{Power Supply and Distribution}{subsection.3.2}{}}
\@writefile{lof}{\contentsline {figure}{\numberline {6}{\ignorespaces Switching voltage regulators: 12V reg on the left, 5V reg on the right. A standard 2200mAh LiPo battery on the right.}}{7}{figure.6}}
\newlabel{power_dist}{{6}{7}{Switching voltage regulators: 12V reg on the left, 5V reg on the right. A standard 2200mAh LiPo battery on the right}{figure.6}{}}
\@writefile{lof}{\contentsline {figure}{\numberline {7}{\ignorespaces Chassis rear profile, lower power deck clearly visible, including power switches and battery status monitors. This area is covered once the system has been enabled to avoid damage. The batteries are stowed behind the battery monitors.}}{7}{figure.7}}
\newlabel{lower_deck_power}{{7}{7}{Chassis rear profile, lower power deck clearly visible, including power switches and battery status monitors. This area is covered once the system has been enabled to avoid damage. The batteries are stowed behind the battery monitors}{figure.7}{}}
\@writefile{toc}{\contentsline {subsection}{\numberline {3.3}Control and Interfaces}{8}{subsection.3.3}}
\newlabel{control}{{3.3}{8}{Control and Interfaces}{subsection.3.3}{}}
\@writefile{lof}{\contentsline {figure}{\numberline {8}{\ignorespaces A top down view of the control systems. Other components have been removed here, so that the system is clearly visible. On the left side, the Raspberry Pi, and just above it, a logic level converter. On the right hand side is the Arduino and motor driver. The Arduino and Pi are separated by the electric motors.}}{8}{figure.8}}
\newlabel{upper_deck_clean}{{8}{8}{A top down view of the control systems. Other components have been removed here, so that the system is clearly visible. On the left side, the Raspberry Pi, and just above it, a logic level converter. On the right hand side is the Arduino and motor driver. The Arduino and Pi are separated by the electric motors}{figure.8}{}}
\@writefile{toc}{\contentsline {subsection}{\numberline {3.4}Peripherals}{9}{subsection.3.4}}
\newlabel{peripherals}{{3.4}{9}{Peripherals}{subsection.3.4}{}}
\@writefile{lof}{\contentsline {figure}{\numberline {9}{\ignorespaces Bare module plate ready for modification.}}{9}{figure.9}}
\newlabel{plate}{{9}{9}{Bare module plate ready for modification}{figure.9}{}}
\@writefile{lof}{\contentsline {figure}{\numberline {10}{\ignorespaces Profile of Outdoor Module, with a 915Mhz radio tranmitter and GPS module, this could be used to explore outdoor environments.}}{9}{figure.10}}
\newlabel{radio_left_2}{{10}{9}{Profile of Outdoor Module, with a 915Mhz radio tranmitter and GPS module, this could be used to explore outdoor environments}{figure.10}{}}
\@writefile{lof}{\contentsline {figure}{\numberline {11}{\ignorespaces Profile of Laser Module. Using the RoboPeak rpLidar laser scanner, this module could be used to explore and map the interior of a building.}}{10}{figure.11}}
\newlabel{laser_left}{{11}{10}{Profile of Laser Module. Using the RoboPeak rpLidar laser scanner, this module could be used to explore and map the interior of a building}{figure.11}{}}
\@writefile{lof}{\contentsline {figure}{\numberline {12}{\ignorespaces Raspberry Pi camera mounted on a servo controlled gimbal with 180 degree hemisphere of movement.}}{10}{figure.12}}
\@writefile{toc}{\contentsline {section}{\numberline {4}Software}{11}{section.4}}
\@writefile{toc}{\contentsline {subsection}{\numberline {4.1}Operating system and ROS}{11}{subsection.4.1}}
\newlabel{OS}{{4.1}{11}{Operating system and ROS}{subsection.4.1}{}}
\@writefile{toc}{\contentsline {subsection}{\numberline {4.2}Motor and Low Level Control}{12}{subsection.4.2}}
\newlabel{motor}{{4.2}{12}{Motor and Low Level Control}{subsection.4.2}{}}
\@writefile{loa}{\contentsline {algorithm}{\numberline {1}{\ignorespaces Driving Motors with input from $cmd\_vel$}}{12}{algorithm.1}}
\@writefile{loa}{\contentsline {algorithm}{\numberline {2}{\ignorespaces Controlling Camera Gimbal with input from $camera\_cmd\_vel$}}{12}{algorithm.2}}
\@writefile{toc}{\contentsline {subsection}{\numberline {4.3}Manual Control Input}{13}{subsection.4.3}}
\newlabel{man_control}{{4.3}{13}{Manual Control Input}{subsection.4.3}{}}
\@writefile{toc}{\contentsline {subsection}{\numberline {4.4}Laser Scan and Hector SLAM}{14}{subsection.4.4}}
\newlabel{laser}{{4.4}{14}{Laser Scan and Hector SLAM}{subsection.4.4}{}}
\@writefile{lof}{\contentsline {figure}{\numberline {13}{\ignorespaces RoboPeak rpLidar laser scanner.}}{14}{figure.13}}
\@writefile{lof}{\contentsline {figure}{\numberline {14}{\ignorespaces Transforms required to integrate Hector SLAM and laser map.}}{14}{figure.14}}
\@writefile{lof}{\contentsline {figure}{\numberline {15}{\ignorespaces Standard laser scanner parameters.}}{14}{figure.15}}
\@writefile{lof}{\contentsline {figure}{\numberline {16}{\ignorespaces Paramters that result in a high-quality map.}}{15}{figure.16}}
\@writefile{lof}{\contentsline {figure}{\numberline {17}{\ignorespaces Resultant map of MAPPR exploration of a residential house.}}{15}{figure.17}}
\@writefile{toc}{\contentsline {subsection}{\numberline {4.5}Camera}{16}{subsection.4.5}}
\newlabel{camera}{{4.5}{16}{Camera}{subsection.4.5}{}}
\@writefile{lof}{\contentsline {figure}{\numberline {18}{\ignorespaces Camera launch file parameters.}}{16}{figure.18}}
\@writefile{lof}{\contentsline {figure}{\numberline {19}{\ignorespaces Rviz window showing live feed from camera inside robotics lab (bottom left pane), with SLAM map.}}{16}{figure.19}}
\@writefile{toc}{\contentsline {section}{\numberline {5}System Operation}{17}{section.5}}
\@writefile{toc}{\contentsline {subsection}{\numberline {5.1}System Integration and Operation}{17}{subsection.5.1}}
\newlabel{system_int}{{5.1}{17}{System Integration and Operation}{subsection.5.1}{}}
\@writefile{toc}{\contentsline {paragraph}{Set up hardware}{17}{section*.1}}
\@writefile{lof}{\contentsline {figure}{\numberline {20}{\ignorespaces Power control and distribution panel.}}{17}{figure.20}}
\@writefile{lof}{\contentsline {figure}{\numberline {21}{\ignorespaces Power control and distribution panel closed, robot is in running mode.}}{17}{figure.21}}
\@writefile{lof}{\contentsline {figure}{\numberline {22}{\ignorespaces Power control and distribution panel closed, robot is in running mode.}}{18}{figure.22}}
\@writefile{lof}{\contentsline {figure}{\numberline {23}{\ignorespaces Successful roscore running on MAPPR.}}{18}{figure.23}}
\@writefile{lof}{\contentsline {figure}{\numberline {24}{\ignorespaces Rviz video feed. The user of the robot can be seen sitting in a chair in real time. }}{19}{figure.24}}
\@writefile{lof}{\contentsline {figure}{\numberline {25}{\ignorespaces The video stream and map, being generated in real time. Note, the map can also be seen on the computer monitor in the video stream. }}{19}{figure.25}}
\@writefile{lof}{\contentsline {figure}{\numberline {26}{\ignorespaces Resultant rqt\textunderscore graph of the nodes that are required for a complete MAPPR runtime environment.}}{20}{figure.26}}
\@writefile{lof}{\contentsline {figure}{\numberline {27}{\ignorespaces Beginning of map.}}{20}{figure.27}}
\@writefile{lof}{\contentsline {figure}{\numberline {28}{\ignorespaces Map development.}}{21}{figure.28}}
\@writefile{lof}{\contentsline {figure}{\numberline {29}{\ignorespaces Final Map.}}{21}{figure.29}}
\@writefile{lof}{\contentsline {figure}{\numberline {30}{\ignorespaces MAPPR traversing a slope. This is only possible with the elastic band modification.}}{22}{figure.30}}
\@writefile{toc}{\contentsline {section}{\numberline {6}Results and Conclusion}{23}{section.6}}
\@writefile{toc}{\contentsline {subsection}{\numberline {6.1}Results}{23}{subsection.6.1}}
\@writefile{toc}{\contentsline {paragraph}{Design Strengths}{23}{section*.2}}
\@writefile{toc}{\contentsline {paragraph}{Design Weaknesses}{23}{section*.3}}
\@writefile{toc}{\contentsline {paragraph}{Future Development}{24}{section*.4}}
\@writefile{toc}{\contentsline {subsection}{\numberline {6.2}Conclusion}{24}{subsection.6.2}}
\citation{*}
\bibstyle{plain}
\bibdata{lab_report_1}
\bibcite{lab}{{1}{}{{}}{{}}}
\bibcite{controller}{{2}{}{{}}{{}}}
\bibcite{ros_pi}{{3}{}{{}}{{}}}
\bibcite{motors}{{4}{}{{}}{{}}}
\bibcite{rpLidar}{{5}{}{{}}{{}}}
\bibcite{ros_cheat}{{6}{}{{}}{{}}}
\bibcite{pi_net}{{7}{}{{}}{{}}}
\bibcite{motor_driver}{{8}{}{{}}{{}}}
\bibcite{ros_tut}{{9}{}{{}}{{}}}
\bibcite{ros_serial}{{10}{}{{}}{{}}}
\providecommand\NAT@force@numbers{}\NAT@force@numbers
